module gitlab.com/tsuchinaga/ebiten-practice

go 1.14

require (
	github.com/golang/freetype v0.0.0-20170609003504-e2365dfdc4a0
	github.com/hajimehoshi/ebiten v1.11.1
	golang.org/x/image v0.0.0-20191009234506-e7c1f5e7dbb8
)
